lab1/3150 lab 1/1.3_a_large_signal_wave_form_data.csv

Record Length,2500,Points,-5.00000E-3,232.00001E-3,,Record Length,2500,Points,-5.00000E-3,-56.000002E-3,
Sample Interval,4.00000E-6,s,-4.99600E-3,232.00001E-3,,Sample Interval,4.00000E-6,s,-4.99600E-3,-64.000003E-3,
Trigger Point,1.2500E3,Samples,-4.99200E-3,232.00001E-3,,Trigger Point,1.2500E3,Samples,-4.99200E-3,-64.000003E-3,
,,,-4.98800E-3,232.00001E-3,,,,,-4.98800E-3,-56.000002E-3,
,,,-4.98400E-3,232.00001E-3,,,,,-4.98400E-3,-64.000003E-3,
,,,-4.98000E-3,232.00001E-3,,,,,-4.98000E-3,-64.000003E-3,
Source,CH1,,-4.97600E-3,232.00001E-3,,Source,CH2,,-4.97600E-3,-64.000003E-3,
Vertical Units,Volts,,-4.97200E-3,232.00001E-3,,Vertical Units,Volts,,-4.97200E-3,-64.000003E-3,
Vertical Scale,100.0000E-3,,-4.96800E-3,236.00002E-3,,Vertical Scale,200.00001E-3,,-4.96800E-3,-64.000003E-3,
Vertical Offset,0,,-4.96400E-3,236.00002E-3,,Vertical Offset,0,,-4.96400E-3,-64.000003E-3,
Horizontal Units,s,,-4.96000E-3,236.00002E-3,,Horizontal Units,s,,-4.96000E-3,-64.000003E-3,
Horizontal Scale,1.000E-3,,-4.95600E-3,236.00002E-3,,Horizontal Scale,1.000E-3,,-4.95600E-3,-64.000003E-3,
Pt Fmt,Y,,-4.95200E-3,236.00002E-3,,Pt Fmt,Y,,-4.95200E-3,-64.000003E-3,
Yzero,40.00000E-3,,-4.94800E-3,236.00002E-3,,Yzero,0.0,,-4.94800E-3,-64.000003E-3,
Probe Atten,10.0000,,-4.94400E-3,236.00002E-3,,Probe Atten,10.0000,,-4.94400E-3,-64.000003E-3,
,,,-4.94000E-3,236.00002E-3,,,,,-4.94000E-3,-64.000003E-3,
Note,TDS 1002C-EDU - 3:55:18 PM   2/19/2016,,-4.93600E-3,236.00002E-3,,Note,TDS 1002C-EDU - 3:55:18 PM   2/19/2016,,-4.93600E-3,-64.000003E-3,
,,,-4.93200E-3,236.00002E-3,,,,,-4.93200E-3,-64.000003E-3,
,,,-4.92800E-3,236.00002E-3,,,,,-4.92800E-3,-64.000003E-3,
,,,-4.92400E-3,236.00002E-3,,,,,-4.92400E-3,-64.000003E-3,
,,,-4.92000E-3,236.00002E-3,,,,,-4.92000E-3,-64.000003E-3,
,,,-4.91600E-3,236.00002E-3,,,,,-4.91600E-3,-64.000003E-3,
,,,-4.91200E-3,236.00002E-3,,,,,-4.91200E-3,-64.000003E-3,
,,,-4.90800E-3,240.00001E-3,,,,,-4.90800E-3,-64.000003E-3,
,,,-4.90400E-3,240.00001E-3,,,,,-4.90400E-3,-64.000003E-3,
,,,-4.90000E-3,240.00001E-3,,,,,-4.90000E-3,-64.000003E-3,
,,,-4.89600E-3,240.00001E-3,,,,,-4.89600E-3,-64.000003E-3,
,,,-4.89200E-3,240.00001E-3,,,,,-4.89200E-3,-64.000003E-3,
,,,-4.88800E-3,240.00001E-3,,,,,-4.88800E-3,-72.000004E-3,
,,,-4.88400E-3,240.00001E-3,,,,,-4.88400E-3,-72.000004E-3,
,,,-4.88000E-3,240.00001E-3,,,,,-4.88000E-3,-72.000004E-3,
,,,-4.87600E-3,240.00001E-3,,,,,-4.87600E-3,-72.000004E-3,
,,,-4.87200E-3,240.00001E-3,,,,,-4.87200E-3,-72.000004E-3,
,,,-4.86800E-3,240.00001E-3,,,,,-4.86800E-3,-72.000004E-3,
,,,-4.86400E-3,240.00001E-3,,,,,-4.86400E-3,-72.000004E-3,
,,,-4.86000E-3,240.00001E-3,,,,,-4.86000E-3,-72.000004E-3,
,,,-4.85600E-3,244.00002E-3,,,,,-4.85600E-3,-72.000004E-3,
,,,-4.85200E-3,244.00002E-3,,,,,-4.85200E-3,-72.000004E-3,
,,,-4.84800E-3,244.00002E-3,,,,,-4.84800E-3,-72.000004E-3,
,,,-4.84400E-3,244.00002E-3,,,,,-4.84400E-3,-72.000004E-3,
,,,-4.84000E-3,244.00002E-3,,,,,-4.84000E-3,-72.000004E-3,
,,,-4.83600E-3,244.00002E-3,,,,,-4.83600E-3,-72.000004E-3,
,,,-4.83200E-3,244.00002E-3,,,,,-4.83200E-3,-72.000004E-3,
,,,-4.82800E-3,244.00002E-3,,,,,-4.82800E-3,-72.000004E-3,
,,,-4.82400E-3,244.00002E-3,,,,,-4.82400E-3,-72.000004E-3,
,,,-4.82000E-3,244.00002E-3,,,,,-4.82000E-3,-72.000004E-3,
,,,-4.81600E-3,244.00002E-3,,,,,-4.81600E-3,-80.000006E-3,
,,,-4.81200E-3,244.00002E-3,,,,,-4.81200E-3,-72.000004E-3,
,,,-4.80800E-3,244.00002E-3,,,,,-4.80800E-3,-80.000006E-3,
,,,-4.80400E-3,248.00001E-3,,,,,-4.80400E-3,-80.000006E-3,
,,,-4.80000E-3,248.00001E-3,,,,,-4.80000E-3,-80.000006E-3,
,,,-4.79600E-3,248.00001E-3,,,,,-4.79600E-3,-80.000006E-3,
,,,-4.79200E-3,248.00001E-3,,,,,-4.79200E-3,-80.000006E-3,
,,,-4.78800E-3,248.00001E-3,,,,,-4.78800E-3,-80.000006E-3,
,,,-4.78400E-3,248.00001E-3,,,,,-4.78400E-3,-80.000006E-3,
,,,-4.78000E-3,248.00001E-3,,,,,-4.78000E-3,-80.000006E-3,
,,,-4.77600E-3,248.00001E-3,,,,,-4.77600E-3,-80.000006E-3,
,,,-4.77200E-3,248.00001E-3,,,,,-4.77200E-3,-80.000006E-3,
,,,-4.76800E-3,248.00001E-3,,,,,-4.76800E-3,-80.000006E-3,
,,,-4.76400E-3,248.00001E-3,,,,,-4.76400E-3,-80.000006E-3,
,,,-4.76000E-3,248.00001E-3,,,,,-4.76000E-3,-80.000006E-3,
,,,-4.75600E-3,252.00000E-3,,,,,-4.75600E-3,-80.000006E-3,
,,,-4.75200E-3,252.00000E-3,,,,,-4.75200E-3,-88.000007E-3,
,,,-4.74800E-3,252.00000E-3,,,,,-4.74800E-3,-88.000007E-3,
,,,-4.74400E-3,252.00000E-3,,,,,-4.74400E-3,-88.000007E-3,
,,,-4.74000E-3,252.00000E-3,,,,,-4.74000E-3,-88.000007E-3,
,,,-4.73600E-3,252.00000E-3,,,,,-4.73600E-3,-88.000007E-3,
,,,-4.73200E-3,252.00000E-3,,,,,-4.73200E-3,-88.000007E-3,
,,,-4.72800E-3,252.00000E-3,,,,,-4.72800E-3,-88.000007E-3,
,,,-4.72400E-3,252.00000E-3,,,,,-4.72400E-3,-88.000007E-3,
,,,-4.72000E-3,252.00000E-3,,,,,-4.72000E-3,-88.000007E-3,
,,,-4.71600E-3,256.00001E-3,,,,,-4.71600E-3,-88.000007E-3,
,,,-4.71200E-3,256.00001E-3,,,,,-4.71200E-3,-88.000007E-3,
,,,-4.70800E-3,256.00001E-3,,,,,-4.70800E-3,-88.000007E-3,
,,,-4.70400E-3,256.00001E-3,,,,,-4.70400E-3,-88.000007E-3,
,,,-4.70000E-3,256.00001E-3,,,,,-4.70000E-3,-88.000007E-3,
,,,-4.69600E-3,256.00001E-3,,,,,-4.69600E-3,-96.000001E-3,
,,,-4.69200E-3,256.00001E-3,,,,,-4.69200E-3,-96.000001E-3,
,,,-4.68800E-3,256.00001E-3,,,,,-4.68800E-3,-96.000001E-3,
,,,-4.68400E-3,256.00001E-3,,,,,-4.68400E-3,-96.000001E-3,
,,,-4.68000E-3,256.00001E-3,,,,,-4.68000E-3,-96.000001E-3,
,,,-4.67600E-3,260.00002E-3,,,,,-4.67600E-3,-96.000001E-3,
,,,-4.67200E-3,260.00002E-3,,,,,-4.67200E-3,-96.000001E-3,
,,,-4.66800E-3,260.00002E-3,,,,,-4.66800E-3,-96.000001E-3,
,,,-4.66400E-3,260.00002E-3,,,,,-4.66400E-3,-96.000001E-3,
,,,-4.66000E-3,260.00002E-3,,,,,-4.66000E-3,-96.000001E-3,
,,,-4.65600E-3,260.00002E-3,,,,,-4.65600E-3,-96.000001E-3,
,,,-4.65200E-3,260.00002E-3,,,,,-4.65200E-3,-96.000001E-3,
,,,-4.64800E-3,260.00002E-3,,,,,-4.64800E-3,-96.000001E-3,
,,,-4.64400E-3,260.00002E-3,,,,,-4.64400E-3,-96.000001E-3,
,,,-4.64000E-3,260.00002E-3,,,,,-4.64000E-3,-104.0000E-3,
,,,-4.63600E-3,264.00000E-3,,,,,-4.63600E-3,-104.0000E-3,
,,,-4.63200E-3,264.00000E-3,,,,,-4.63200E-3,-104.0000E-3,
,,,-4.62800E-3,264.00000E-3,,,,,-4.62800E-3,-104.0000E-3,
,,,-4.62400E-3,264.00000E-3,,,,,-4.62400E-3,-104.0000E-3,
,,,-4.62000E-3,264.00000E-3,,,,,-4.62000E-3,-104.0000E-3,
,,,-4.61600E-3,264.00000E-3,,,,,-4.61600E-3,-104.0000E-3,
,,,-4.61200E-3,264.00000E-3,,,,,-4.61200E-3,-104.0000E-3,
,,,-4.60800E-3,264.00000E-3,,,,,-4.60800E-3,-104.0000E-3,
,,,-4.60400E-3,264.00000E-3,,,,,-4.60400E-3,-104.0000E-3,
,,,-4.60000E-3,268.00001E-3,,,,,-4.60000E-3,-112.0000E-3,
,,,-4.59600E-3,268.00001E-3,,,,,-4.59600E-3,-104.0000E-3,
,,,-4.59200E-3,268.00001E-3,,,,,-4.59200E-3,-112.0000E-3,
,,,-4.58800E-3,268.00001E-3,,,,,-4.58800E-3,-112.0000E-3,
,,,-4.58400E-3,268.00001E-3,,,,,-4.58400E-3,-112.0000E-3,
,,,-4.58000E-3,268.00001E-3,,,,,-4.58000E-3,-112.0000E-3,
,,,-4.57600E-3,268.00001E-3,,,,,-4.57600E-3,-112.0000E-3,
,,,-4.57200E-3,268.00001E-3,,,,,-4.57200E-3,-112.0000E-3,
,,,-4.56800E-3,268.00001E-3,,,,,-4.56800E-3,-112.0000E-3,
,,,-4.56400E-3,268.00001E-3,,,,,-4.56400E-3,-112.0000E-3,
,,,-4.56000E-3,272.00001E-3,,,,,-4.56000E-3,-112.0000E-3,
,,,-4.55600E-3,272.00001E-3,,,,,-4.55600E-3,-112.0000E-3,
,,,-4.55200E-3,272.00001E-3,,,,,-4.55200E-3,-120.0000E-3,
,,,-4.54800E-3,272.00001E-3,,,,,-4.54800E-3,-120.0000E-3,
,,,-4.54400E-3,272.00001E-3,,,,,-4.54400E-3,-120.0000E-3,
,,,-4.54000E-3,272.00001E-3,,,,,-4.54000E-3,-120.0000E-3,
,,,-4.53600E-3,272.00001E-3,,,,,-4.53600E-3,-120.0000E-3,
,,,-4.53200E-3,272.00001E-3,,,,,-4.53200E-3,-120.0000E-3,
,,,-4.52800E-3,272.00001E-3,,,,,-4.52800E-3,-120.0000E-3,
,,,-4.52400E-3,272.00001E-3,,,,,-4.52400E-3,-120.0000E-3,
,,,-4.52000E-3,276.00002E-3,,,,,-4.52000E-3,-120.0000E-3,
,,,-4.51600E-3,276.00002E-3,,,,,-4.51600E-3,-128.0000E-3,
,,,-4.51200E-3,276.00002E-3,,,,,-4.51200E-3,-128.0000E-3,
,,,-4.50800E-3,276.00002E-3,,,,,-4.50800E-3,-128.0000E-3,
,,,-4.50400E-3,276.00002E-3,,,,,-4.50400E-3,-128.0000E-3,
,,,-4.50000E-3,276.00002E-3,,,,,-4.50000E-3,-128.0000E-3,
,,,-4.49600E-3,276.00002E-3,,,,,-4.49600E-3,-128.0000E-3,
,,,-4.49200E-3,276.00002E-3,,,,,-4.49200E-3,-128.0000E-3,
,,,-4.48800E-3,276.00002E-3,,,,,-4.48800E-3,-128.0000E-3,
,,,-4.48400E-3,276.00002E-3,,,,,-4.48400E-3,-128.0000E-3,
,,,-4.48000E-3,280.00000E-3,,,,,-4.48000E-3,-136.0000E-3,
,,,-4.47600E-3,276.00002E-3,,,,,-4.47600E-3,-136.0000E-3,
,,,-4.47200E-3,280.00000E-3,,,,,-4.47200E-3,-136.0000E-3,
,,,-4.46800E-3,280.00000E-3,,,,,-4.46800E-3,-136.0000E-3,
,,,-4.46400E-3,280.00000E-3,,,,,-4.46400E-3,-136.0000E-3,
,,,-4.46000E-3,280.00000E-3,,,,,-4.46000E-3,-136.0000E-3,
,,,-4.45600E-3,280.00000E-3,,,,,-4.45600E-3,-136.0000E-3,
,,,-4.45200E-3,280.00000E-3,,,,,-4.45200E-3,-136.0000E-3,
,,,-4.44800E-3,280.00000E-3,,,,,-4.44800E-3,-136.0000E-3,
,,,-4.44400E-3,280.00000E-3,,,,,-4.44400E-3,-136.0000E-3,
,,,-4.44000E-3,280.00000E-3,,,,,-4.44000E-3,-144.0000E-3,
,,,-4.43600E-3,280.00000E-3,,,,,-4.43600E-3,-144.0000E-3,
,,,-4.43200E-3,284.00001E-3,,,,,-4.43200E-3,-144.0000E-3,
,,,-4.42800E-3,284.00001E-3,,,,,-4.42800E-3,-144.0000E-3,
,,,-4.42400E-3,284.00001E-3,,,,,-4.42400E-3,-144.0000E-3,
,,,-4.42000E-3,284.00001E-3,,,,,-4.42000E-3,-144.0000E-3,
,,,-4.41600E-3,284.00001E-3,,,,,-4.41600E-3,-152.00001E-3,
,,,-4.41200E-3,284.00001E-3,,,,,-4.41200E-3,-152.00001E-3,
,,,-4.40800E-3,284.00001E-3,,,,,-4.40800E-3,-152.00001E-3,
,,,-4.40400E-3,284.00001E-3,,,,,-4.40400E-3,-152.00001E-3,
,,,-4.40000E-3,288.00002E-3,,,,,-4.40000E-3,-152.00001E-3,
,,,-4.39600E-3,288.00002E-3,,,,,-4.39600E-3,-152.00001E-3,
,,,-4.39200E-3,288.00002E-3,,,,,-4.39200E-3,-160.00001E-3,
,,,-4.38800E-3,288.00002E-3,,,,,-4.38800E-3,-160.00001E-3,
,,,-4.38400E-3,288.00002E-3,,,,,-4.38400E-3,-160.00001E-3,
,,,-4.38000E-3,288.00002E-3,,,,,-4.38000E-3,-160.00001E-3,
,,,-4.37600E-3,288.00002E-3,,,,,-4.37600E-3,-160.00001E-3,
,,,-4.37200E-3,288.00002E-3,,,,,-4.37200E-3,-160.00001E-3,
,,,-4.36800E-3,288.00002E-3,,,,,-4.36800E-3,-160.00001E-3,
,,,-4.36400E-3,292.00003E-3,,,,,-4.36400E-3,-168.00001E-3,
,,,-4.36000E-3,292.00003E-3,,,,,-4.36000E-3,-168.00001E-3,
,,,-4.35600E-3,292.00003E-3,,,,,-4.35600E-3,-168.00001E-3,
,,,-4.35200E-3,292.00003E-3,,,,,-4.35200E-3,-168.00001E-3,
,,,-4.34800E-3,292.00003E-3,,,,,-4.34800E-3,-168.00001E-3,
,,,-4.34400E-3,292.00003E-3,,,,,-4.34400E-3,-168.00001E-3,
,,,-4.34000E-3,292.00003E-3,,,,,-4.34000E-3,-176.00001E-3,
,,,-4.33600E-3,292.00003E-3,,,,,-4.33600E-3,-176.00001E-3,
,,,-4.33200E-3,292.00003E-3,,,,,-4.33200E-3,-176.00001E-3,
,,,-4.32800E-3,292.00003E-3,,,,,-4.32800E-3,-176.00001E-3,
,,,-4.32400E-3,296.00000E-3,,,,,-4.32400E-3,-176.00001E-3,
,,,-4.32000E-3,296.00000E-3,,,,,-4.32000E-3,-176.00001E-3,
,,,-4.31600E-3,296.00000E-3,,,,,-4.31600E-3,-184.00002E-3,
,,,-4.31200E-3,296.00000E-3,,,,,-4.31200E-3,-184.00002E-3,
,,,-4.30800E-3,296.00000E-3,,,,,-4.30800E-3,-184.00002E-3,
,,,-4.30400E-3,296.00000E-3,,,,,-4.30400E-3,-184.00002E-3,
,,,-4.30000E-3,296.00000E-3,,,,,-4.30000E-3,-184.00002E-3,
,,,-4.29600E-3,296.00000E-3,,,,,-4.29600E-3,-184.00002E-3,
,,,-4.29200E-3,296.00000E-3,,,,,-4.29200E-3,-192.00000E-3,
,,,-4.28800E-3,300.00001E-3,,,,,-4.28800E-3,-192.00000E-3,
,,,-4.28400E-3,300.00001E-3,,,,,-4.28400E-3,-192.00000E-3,
,,,-4.28000E-3,300.00001E-3,,,,,-4.28000E-3,-192.00000E-3,
,,,-4.27600E-3,300.00001E-3,,,,,-4.27600E-3,-192.00000E-3,
,,,-4.27200E-3,300.00001E-3,,,,,-4.27200E-3,-200.00000E-3,
,,,-4.26800E-3,300.00001E-3,,,,,-4.26800E-3,-200.00000E-3,
,,,-4.26400E-3,300.00001E-3,,,,,-4.26400E-3,-200.00000E-3,
,,,-4.26000E-3,300.00001E-3,,,,,-4.26000E-3,-200.00000E-3,
,,,-4.25600E-3,300.00001E-3,,,,,-4.25600E-3,-200.00000E-3,
,,,-4.25200E-3,300.00001E-3,,,,,-4.25200E-3,-200.00000E-3,
,,,-4.24800E-3,304.00002E-3,,,,,-4.24800E-3,-208.00000E-3,
,,,-4.24400E-3,304.00002E-3,,,,,-4.24400E-3,-208.00000E-3,
,,,-4.24000E-3,304.00002E-3,,,,,-4.24000E-3,-208.00000E-3,
,,,-4.23600E-3,304.00002E-3,,,,,-4.23600E-3,-208.00000E-3,
,,,-4.23200E-3,304.00002E-3,,,,,-4.23200E-3,-216.00001E-3,
,,,-4.22800E-3,304.00002E-3,,,,,-4.22800E-3,-216.00001E-3,
,,,-4.22400E-3,304.00002E-3,,,,,-4.22400E-3,-216.00001E-3,
,,,-4.22000E-3,304.00002E-3,,,,,-4.22000E-3,-216.00001E-3,
,,,-4.21600E-3,308.00003E-3,,,,,-4.21600E-3,-216.00001E-3,
,,,-4.21200E-3,308.00003E-3,,,,,-4.21200E-3,-216.00001E-3,
,,,-4.20800E-3,308.00003E-3,,,,,-4.20800E-3,-224.00001E-3,
,,,-4.20400E-3,308.00003E-3,,,,,-4.20400E-3,-224.00001E-3,
,,,-4.20000E-3,308.00003E-3,,,,,-4.20000E-3,-224.00001E-3,
,,,-4.19600E-3,308.00003E-3,,,,,-4.19600E-3,-224.00001E-3,
,,,-4.19200E-3,308.00003E-3,,,,,-4.19200E-3,-232.00001E-3,
,,,-4.18800E-3,308.00003E-3,,,,,-4.18800E-3,-232.00001E-3,
,,,-4.18400E-3,308.00003E-3,,,,,-4.18400E-3,-232.00001E-3,
,,,-4.18000E-3,308.00003E-3,,,,,-4.18000E-3,-232.00001E-3,
,,,-4.17600E-3,312.00001E-3,,,,,-4.17600E-3,-240.00001E-3,
,,,-4.17200E-3,312.00001E-3,,,,,-4.17200E-3,-240.00001E-3,
,,,-4.16800E-3,312.00001E-3,,,,,-4.16800E-3,-240.00001E-3,
,,,-4.16400E-3,312.00001E-3,,,,,-4.16400E-3,-240.00001E-3,
,,,-4.16000E-3,312.00001E-3,,,,,-4.16000E-3,-240.00001E-3,
,,,-4.15600E-3,312.00001E-3,,,,,-4.15600E-3,-248.00001E-3,
,,,-4.15200E-3,312.00001E-3,,,,,-4.15200E-3,-248.00001E-3,
,,,-4.14800E-3,312.00001E-3,,,,,-4.14800E-3,-248.00001E-3,
,,,-4.14400E-3,312.00001E-3,,,,,-4.14400E-3,-248.00001E-3,
,,,-4.14000E-3,312.00001E-3,,,,,-4.14000E-3,-256.00001E-3,
,,,-4.13600E-3,312.00001E-3,,,,,-4.13600E-3,-256.00001E-3,
,,,-4.13200E-3,316.00001E-3,,,,,-4.13200E-3,-256.00001E-3,
,,,-4.12800E-3,316.00001E-3,,,,,-4.12800E-3,-256.00001E-3,
,,,-4.12400E-3,316.00001E-3,,,,,-4.12400E-3,-264.00000E-3,
,,,-4.12000E-3,316.00001E-3,,,,,-4.12000E-3,-264.00000E-3,
,,,-4.11600E-3,316.00001E-3,,,,,-4.11600E-3,-264.00000E-3,
,,,-4.11200E-3,316.00001E-3,,,,,-4.11200E-3,-264.00000E-3,
,,,-4.10800E-3,316.00001E-3,,,,,-4.10800E-3,-264.00000E-3,
,,,-4.10400E-3,316.00001E-3,,,,,-4.10400E-3,-272.00001E-3,
,,,-4.10000E-3,316.00001E-3,,,,,-4.10000E-3,-272.00001E-3,
,,,-4.09600E-3,316.00001E-3,,,,,-4.09600E-3,-272.00001E-3,
,,,-4.09200E-3,320.00002E-3,,,,,-4.09200E-3,-272.00001E-3,
,,,-4.08800E-3,320.00002E-3,,,,,-4.08800E-3,-280.00000E-3,
,,,-4.08400E-3,320.00002E-3,,,,,-4.08400E-3,-280.00000E-3,
,,,-4.08000E-3,320.00002E-3,,,,,-4.08000E-3,-280.00000E-3,
,,,-4.07600E-3,320.00002E-3,,,,,-4.07600E-3,-280.00000E-3,
,,,-4.07200E-3,320.00002E-3,,,,,-4.07200E-3,-288.00002E-3,
,,,-4.06800E-3,320.00002E-3,,,,,-4.06800E-3,-288.00002E-3,
,,,-4.06400E-3,320.00002E-3,,,,,-4.06400E-3,-288.00002E-3,
,,,-4.06000E-3,320.00002E-3,,,,,-4.06000E-3,-288.00002E-3,
,,,-4.05600E-3,320.00002E-3,,,,,-4.05600E-3,-296.00000E-3,
,,,-4.05200E-3,324.00000E-3,,,,,-4.05200E-3,-296.00000E-3,
,,,-4.04800E-3,324.00000E-3,,,,,-4.04800E-3,-296.00000E-3,
,,,-4.04400E-3,324.00000E-3,,,,,-4.04400E-3,-296.00000E-3,
,,,-4.04000E-3,324.00000E-3,,,,,-4.04000E-3,-304.00002E-3,
,,,-4.03600E-3,324.00000E-3,,,,,-4.03600E-3,-304.00002E-3,
,,,-4.03200E-3,324.00000E-3,,,,,-4.03200E-3,-304.00002E-3,
,,,-4.02800E-3,324.00000E-3,,,,,-4.02800E-3,-312.00001E-3,
,,,-4.02400E-3,324.00000E-3,,,,,-4.02400E-3,-312.00001E-3,
,,,-4.02000E-3,324.00000E-3,,,,,-4.02000E-3,-312.00001E-3,
,,,-4.01600E-3,324.00000E-3,,,,,-4.01600E-3,-312.00001E-3,
,,,-4.01200E-3,324.00000E-3,,,,,-4.01200E-3,-320.00002E-3,
,,,-4.00800E-3,328.00001E-3,,,,,-4.00800E-3,-320.00002E-3,
,,,-4.00400E-3,328.00001E-3,,,,,-4.00400E-3,-320.00002E-3,
,,,-4.00000E-3,328.00001E-3,,,,,-4.00000E-3,-320.00002E-3,
,,,-3.99600E-3,328.00001E-3,,,,,-3.99600E-3,-328.00001E-3,
,,,-3.99200E-3,328.00001E-3,,,,,-3.99200E-3,-328.00001E-3,
,,,-3.98800E-3,328.00001E-3,,,,,-3.98800E-3,-328.00001E-3,
,,,-3.98400E-3,328.00001E-3,,,,,-3.98400E-3,-336.00003E-3,
,,,-3.98000E-3,328.00001E-3,,,,,-3.98000E-3,-336.00003E-3,
,,,-3.97600E-3,328.00001E-3,,,,,-3.97600E-3,-336.00003E-3,
,,,-3.97200E-3,328.00001E-3,,,,,-3.97200E-3,-336.00003E-3,
,,,-3.96800E-3,328.00001E-3,,,,,-3.96800E-3,-344.00001E-3,
,,,-3.96400E-3,328.00001E-3,,,,,-3.96400E-3,-344.00001E-3,
,,,-3.96000E-3,332.00002E-3,,,,,-3.96000E-3,-344.00001E-3,
,,,-3.95600E-3,332.00002E-3,,,,,-3.95600E-3,-352.00003E-3,
,,,-3.95200E-3,332.00002E-3,,,,,-3.95200E-3,-352.00003E-3,
,,,-3.94800E-3,332.00002E-3,,,,,-3.94800E-3,-352.00003E-3,
,,,-3.94400E-3,332.00002E-3,,,,,-3.94400E-3,-352.00003E-3,
,,,-3.94000E-3,332.00002E-3,,,,,-3.94000E-3,-360.00001E-3,
,,,-3.93600E-3,332.00002E-3,,,,,-3.93600E-3,-360.00001E-3,
,,,-3.93200E-3,332.00002E-3,,,,,-3.93200E-3,-360.00001E-3,
,,,-3.92800E-3,332.00002E-3,,,,,-3.92800E-3,-368.00003E-3,
,,,-3.92400E-3,332.00002E-3,,,,,-3.92400E-3,-368.00003E-3,
,,,-3.92000E-3,332.00002E-3,,,,,-3.92000E-3,-368.00003E-3,
,,,-3.91600E-3,332.00002E-3,,,,,-3.91600E-3,-376.00002E-3,
,,,-3.91200E-3,332.00002E-3,,,,,-3.91200E-3,-376.00002E-3,
,,,-3.90800E-3,332.00002E-3,,,,,-3.90800E-3,-376.00002E-3,
,,,-3.90400E-3,336.00003E-3,,,,,-3.90400E-3,-376.00002E-3,
,,,-3.90000E-3,336.00003E-3,,,,,-3.90000E-3,-384.00000E-3,
,,,-3.89600E-3,336.00003E-3,,,,,-3.89600E-3,-384.00000E-3,
,,,-3.89200E-3,336.00003E-3,,,,,-3.89200E-3,-384.00000E-3,
,,,-3.88800E-3,336.00003E-3,,,,,-3.88800E-3,-384.00000E-3,
,,,-3.88400E-3,336.00003E-3,,,,,-3.88400E-3,-392.00002E-3,
,,,-3.88000E-3,336.00003E-3,,,,,-3.88000E-3,-392.00002E-3,
,,,-3.87600E-3,336.00003E-3,,,,,-3.87600E-3,-392.00002E-3,
,,,-3.87200E-3,336.00003E-3,,,,,-3.87200E-3,-400.00001E-3,
,,,-3.86800E-3,336.00003E-3,,,,,-3.86800E-3,-400.00001E-3,
,,,-3.86400E-3,336.00003E-3,,,,,-3.86400E-3,-400.00001E-3,
,,,-3.86000E-3,336.00003E-3,,,,,-3.86000E-3,-400.00001E-3,
,,,-3.85600E-3,336.00003E-3,,,,,-3.85600E-3,-408.000022E-3,
,,,-3.85200E-3,340.00000E-3,,,,,-3.85200E-3,-408.000022E-3,
,,,-3.84800E-3,340.00000E-3,,,,,-3.84800E-3,-408.000022E-3,
,,,-3.84400E-3,340.00000E-3,,,,,-3.84400E-3,-408.000022E-3,
,,,-3.84000E-3,340.00000E-3,,,,,-3.84000E-3,-416.000009E-3,
,,,-3.83600E-3,340.00000E-3,,,,,-3.83600E-3,-416.000009E-3,
,,,-3.83200E-3,340.00000E-3,,,,,-3.83200E-3,-416.000009E-3,
,,,-3.82800E-3,340.00000E-3,,,,,-3.82800E-3,-424.000025E-3,
,,,-3.82400E-3,340.00000E-3,,,,,-3.82400E-3,-424.000025E-3,
,,,-3.82000E-3,340.00000E-3,,,,,-3.82000E-3,-424.000025E-3,
,,,-3.81600E-3,340.00000E-3,,,,,-3.81600E-3,-424.000025E-3,
,,,-3.81200E-3,340.00000E-3,,,,,-3.81200E-3,-432.000011E-3,
,,,-3.80800E-3,340.00000E-3,,,,,-3.80800E-3,-432.000011E-3,
,,,-3.80400E-3,340.00000E-3,,,,,-3.80400E-3,-432.000011E-3,
,,,-3.80000E-3,340.00000E-3,,,,,-3.80000E-3,-432.000011E-3,
,,,-3.79600E-3,340.00000E-3,,,,,-3.79600E-3,-440.000027E-3,
,,,-3.79200E-3,340.00000E-3,,,,,-3.79200E-3,-440.000027E-3,
,,,-3.78800E-3,344.00001E-3,,,,,-3.78800E-3,-440.000027E-3,
,,,-3.78400E-3,344.00001E-3,,,,,-3.78400E-3,-440.000027E-3,
,,,-3.78000E-3,344.00001E-3,,,,,-3.78000E-3,-448.000014E-3,
,,,-3.77600E-3,344.00001E-3,,,,,-3.77600E-3,-448.000014E-3,
,,,-3.77200E-3,344.00001E-3,,,,,-3.77200E-3,-448.000014E-3,
,,,-3.76800E-3,344.00001E-3,,,,,-3.76800E-3,-448.000014E-3,
,,,-3.76400E-3,344.00001E-3,,,,,-3.76400E-3,-456.000030E-3,
,,,-3.76000E-3,344.00001E-3,,,,,-3.76000E-3,-456.000030E-3,
,,,-3.75600E-3,344.00001E-3,,,,,-3.75600E-3,-456.000030E-3,
,,,-3.75200E-3,344.00001E-3,,,,,-3.75200E-3,-456.000030E-3,
,,,-3.74800E-3,344.00001E-3,,,,,-3.74800E-3,-464.000016E-3,
,,,-3.74400E-3,344.00001E-3,,,,,-3.74400E-3,-464.000016E-3,
,,,-3.74000E-3,344.00001E-3,,,,,-3.74000E-3,-464.000016E-3,
,,,-3.73600E-3,344.00001E-3,,,,,-3.73600E-3,-464.000016E-3,
,,,-3.73200E-3,344.00001E-3,,,,,-3.73200E-3,-472.000033E-3,
,,,-3.72800E-3,344.00001E-3,,,,,-3.72800E-3,-472.000033E-3,
,,,-3.72400E-3,344.00001E-3,,,,,-3.72400E-3,-472.000033E-3,
,,,-3.72000E-3,344.00001E-3,,,,,-3.72000E-3,-472.000033E-3,
,,,-3.71600E-3,348.00002E-3,,,,,-3.71600E-3,-480.000019E-3,
,,,-3.71200E-3,348.00002E-3,,,,,-3.71200E-3,-480.000019E-3,
,,,-3.70800E-3,348.00002E-3,,,,,-3.70800E-3,-480.000019E-3,
,,,-3.70400E-3,348.00002E-3,,,,,-3.70400E-3,-480.000019E-3,
,,,-3.70000E-3,348.00002E-3,,,,,-3.70000E-3,-488.000035E-3,
,,,-3.69600E-3,348.00002E-3,,,,,-3.69600E-3,-488.000035E-3,
,,,-3.69200E-3,348.00002E-3,,,,,-3.69200E-3,-488.000035E-3,
,,,-3.68800E-3,348.00002E-3,,,,,-3.68800E-3,-488.000035E-3,
,,,-3.68400E-3,348.00002E-3,,,,,-3.68400E-3,-488.000035E-3,
